{
    "10a901bb-9af7-4e7f-bc4c-12560ec2e3c9-en.srt": {
        "contentType": "application/octet-stream",
        "content_son": {
            "category": "asset",
            "course": "Vulns1002_C-derived",
            "name": "10a901bb-9af7-4e7f-bc4c-12560ec2e3c9-en.srt",
            "org": "OpenSecurityTraining2",
            "revision": null,
            "run": "2022_v1",
            "tag": "c4x"
        },
        "displayname": "10a901bb-9af7-4e7f-bc4c-12560ec2e3c9-en.srt",
        "filename": "asset-v1:OpenSecurityTraining2+Vulns1002_C-derived+2022_v1+type@asset+block@10a901bb-9af7-4e7f-bc4c-12560ec2e3c9-en.srt",
        "import_path": "10a901bb-9af7-4e7f-bc4c-12560ec2e3c9-en.srt",
        "locked": false,
        "thumbnail_location": null
    },
    "154f0ba1-bd24-4587-bb90-9ebc1207887c-en.srt": {
        "contentType": "application/octet-stream",
        "content_son": {
            "category": "asset",
            "course": "Vulns1002_C-derived",
            "name": "154f0ba1-bd24-4587-bb90-9ebc1207887c-en.srt",
            "org": "OpenSecurityTraining2",
            "revision": null,
            "run": "2022_v1",
            "tag": "c4x"
        },
        "displayname": "154f0ba1-bd24-4587-bb90-9ebc1207887c-en.srt",
        "filename": "asset-v1:OpenSecurityTraining2+Vulns1002_C-derived+2022_v1+type@asset+block@154f0ba1-bd24-4587-bb90-9ebc1207887c-en.srt",
        "import_path": "154f0ba1-bd24-4587-bb90-9ebc1207887c-en.srt",
        "locked": false,
        "thumbnail_location": null
    },
    "36928c81-b5ef-4dd5-a7eb-a3306961947d-en.srt": {
        "contentType": "application/octet-stream",
        "content_son": {
            "category": "asset",
            "course": "Vulns1002_C-derived",
            "name": "36928c81-b5ef-4dd5-a7eb-a3306961947d-en.srt",
            "org": "OpenSecurityTraining2",
            "revision": null,
            "run": "2022_v1",
            "tag": "c4x"
        },
        "displayname": "36928c81-b5ef-4dd5-a7eb-a3306961947d-en.srt",
        "filename": "asset-v1:OpenSecurityTraining2+Vulns1002_C-derived+2022_v1+type@asset+block@36928c81-b5ef-4dd5-a7eb-a3306961947d-en.srt",
        "import_path": "36928c81-b5ef-4dd5-a7eb-a3306961947d-en.srt",
        "locked": false,
        "thumbnail_location": null
    },
    "380fbb8c-5453-406b-aacd-25c61be5a3c5-en.srt": {
        "contentType": "application/octet-stream",
        "content_son": {
            "category": "asset",
            "course": "Vulns1002_C-derived",
            "name": "380fbb8c-5453-406b-aacd-25c61be5a3c5-en.srt",
            "org": "OpenSecurityTraining2",
            "revision": null,
            "run": "2022_v1",
            "tag": "c4x"
        },
        "displayname": "380fbb8c-5453-406b-aacd-25c61be5a3c5-en.srt",
        "filename": "asset-v1:OpenSecurityTraining2+Vulns1002_C-derived+2022_v1+type@asset+block@380fbb8c-5453-406b-aacd-25c61be5a3c5-en.srt",
        "import_path": "380fbb8c-5453-406b-aacd-25c61be5a3c5-en.srt",
        "locked": false,
        "thumbnail_location": null
    },
    "487b22c6-e92d-4917-b7d2-b619503e1df7-en.srt": {
        "contentType": "application/octet-stream",
        "content_son": {
            "category": "asset",
            "course": "Vulns1002_C-derived",
            "name": "487b22c6-e92d-4917-b7d2-b619503e1df7-en.srt",
            "org": "OpenSecurityTraining2",
            "revision": null,
            "run": "2022_v1",
            "tag": "c4x"
        },
        "displayname": "487b22c6-e92d-4917-b7d2-b619503e1df7-en.srt",
        "filename": "asset-v1:OpenSecurityTraining2+Vulns1002_C-derived+2022_v1+type@asset+block@487b22c6-e92d-4917-b7d2-b619503e1df7-en.srt",
        "import_path": "487b22c6-e92d-4917-b7d2-b619503e1df7-en.srt",
        "locked": false,
        "thumbnail_location": null
    },
    "5ca2bea0-7563-4169-9490-59a4c55d7428-en.srt": {
        "contentType": "application/octet-stream",
        "content_son": {
            "category": "asset",
            "course": "Vulns1002_C-derived",
            "name": "5ca2bea0-7563-4169-9490-59a4c55d7428-en.srt",
            "org": "OpenSecurityTraining2",
            "revision": null,
            "run": "2022_v1",
            "tag": "c4x"
        },
        "displayname": "5ca2bea0-7563-4169-9490-59a4c55d7428-en.srt",
        "filename": "asset-v1:OpenSecurityTraining2+Vulns1002_C-derived+2022_v1+type@asset+block@5ca2bea0-7563-4169-9490-59a4c55d7428-en.srt",
        "import_path": "5ca2bea0-7563-4169-9490-59a4c55d7428-en.srt",
        "locked": false,
        "thumbnail_location": null
    },
    "70da316f-0d4f-44e7-bef6-9d7d9d44630c-en.srt": {
        "contentType": "application/octet-stream",
        "content_son": {
            "category": "asset",
            "course": "Vulns1002_C-derived",
            "name": "70da316f-0d4f-44e7-bef6-9d7d9d44630c-en.srt",
            "org": "OpenSecurityTraining2",
            "revision": null,
            "run": "2022_v1",
            "tag": "c4x"
        },
        "displayname": "70da316f-0d4f-44e7-bef6-9d7d9d44630c-en.srt",
        "filename": "asset-v1:OpenSecurityTraining2+Vulns1002_C-derived+2022_v1+type@asset+block@70da316f-0d4f-44e7-bef6-9d7d9d44630c-en.srt",
        "import_path": "70da316f-0d4f-44e7-bef6-9d7d9d44630c-en.srt",
        "locked": false,
        "thumbnail_location": null
    },
    "V1002_Class_TN.png": {
        "contentType": "image/png",
        "content_son": {
            "category": "asset",
            "course": "Vulns1002_C-derived",
            "name": "V1002_Class_TN.png",
            "org": "OpenSecurityTraining2",
            "revision": null,
            "run": "2022_v1",
            "tag": "c4x"
        },
        "displayname": "V1002_Class_TN.png",
        "filename": "asset-v1:OpenSecurityTraining2+Vulns1002_C-derived+2022_v1+type@asset+block@V1002_Class_TN.png",
        "import_path": "V1002_Class_TN.png",
        "locked": false,
        "thumbnail_location": [
            "c4x",
            "OpenSecurityTraining2",
            "Vulns1002_C-derived",
            "thumbnail",
            "V1002_Class_TN-png.jpg",
            null
        ]
    },
    "__Vulns1001_XX_All_05_Mitigation_05_TaggedMemory__v1-en.srt": {
        "contentType": "application/octet-stream",
        "content_son": {
            "category": "asset",
            "course": "Vulns1002_C-derived",
            "name": "__Vulns1001_XX_All_05_Mitigation_05_TaggedMemory__v1-en.srt",
            "org": "OpenSecurityTraining2",
            "revision": null,
            "run": "2022_v1",
            "tag": "c4x"
        },
        "displayname": "__Vulns1001_XX_All_05_Mitigation_05_TaggedMemory__v1-en.srt",
        "filename": "asset-v1:OpenSecurityTraining2+Vulns1002_C-derived+2022_v1+type@asset+block@__Vulns1001_XX_All_05_Mitigation_05_TaggedMemory__v1-en.srt",
        "import_path": "__Vulns1001_XX_All_05_Mitigation_05_TaggedMemory__v1-en.srt",
        "locked": false,
        "thumbnail_location": null
    },
    "__Vulns1002_01_Intro__v1-en.srt": {
        "contentType": "application/octet-stream",
        "content_son": {
            "category": "asset",
            "course": "Vulns1002_C-derived",
            "name": "__Vulns1002_01_Intro__v1-en.srt",
            "org": "OpenSecurityTraining2",
            "revision": null,
            "run": "2022_v1",
            "tag": "c4x"
        },
        "displayname": "__Vulns1002_01_Intro__v1-en.srt",
        "filename": "asset-v1:OpenSecurityTraining2+Vulns1002_C-derived+2022_v1+type@asset+block@__Vulns1002_01_Intro__v1-en.srt",
        "import_path": "__Vulns1002_01_Intro__v1-en.srt",
        "locked": false,
        "thumbnail_location": null
    },
    "__Vulns1002_02_UninitializedData_01_Overview_01__v1-en.srt": {
        "contentType": "application/octet-stream",
        "content_son": {
            "category": "asset",
            "course": "Vulns1002_C-derived",
            "name": "__Vulns1002_02_UninitializedData_01_Overview_01__v1-en.srt",
            "org": "OpenSecurityTraining2",
            "revision": null,
            "run": "2022_v1",
            "tag": "c4x"
        },
        "displayname": "__Vulns1002_02_UninitializedData_01_Overview_01__v1-en.srt",
        "filename": "asset-v1:OpenSecurityTraining2+Vulns1002_C-derived+2022_v1+type@asset+block@__Vulns1002_02_UninitializedData_01_Overview_01__v1-en.srt",
        "import_path": "__Vulns1002_02_UninitializedData_01_Overview_01__v1-en.srt",
        "locked": false,
        "thumbnail_location": null
    },
    "__Vulns1002_02_UninitializedData_01_Overview_02__v1-en.srt": {
        "contentType": "application/octet-stream",
        "content_son": {
            "category": "asset",
            "course": "Vulns1002_C-derived",
            "name": "__Vulns1002_02_UninitializedData_01_Overview_02__v1-en.srt",
            "org": "OpenSecurityTraining2",
            "revision": null,
            "run": "2022_v1",
            "tag": "c4x"
        },
        "displayname": "__Vulns1002_02_UninitializedData_01_Overview_02__v1-en.srt",
        "filename": "asset-v1:OpenSecurityTraining2+Vulns1002_C-derived+2022_v1+type@asset+block@__Vulns1002_02_UninitializedData_01_Overview_02__v1-en.srt",
        "import_path": "__Vulns1002_02_UninitializedData_01_Overview_02__v1-en.srt",
        "locked": false,
        "thumbnail_location": null
    },
    "__Vulns1002_02_UninitializedData_02_Example_CVE-2019-14580_01_Reverse_Exploit_Then_Vuln__v1-en.srt": {
        "contentType": "application/octet-stream",
        "content_son": {
            "category": "asset",
            "course": "Vulns1002_C-derived",
            "name": "__Vulns1002_02_UninitializedData_02_Example_CVE-2019-14580_01_Reverse_Exploit_Then_Vuln__v1-en.srt",
            "org": "OpenSecurityTraining2",
            "revision": null,
            "run": "2022_v1",
            "tag": "c4x"
        },
        "displayname": "__Vulns1002_02_UninitializedData_02_Example_CVE-2019-14580_01_Reverse_Exploit_Then_Vuln__v1-en.srt",
        "filename": "asset-v1:OpenSecurityTraining2+Vulns1002_C-derived+2022_v1+type@asset+block@__Vulns1002_02_UninitializedData_02_Example_CVE-2019-14580_01_Reverse_Exploit_Then_Vuln__v1-en.srt",
        "import_path": "__Vulns1002_02_UninitializedData_02_Example_CVE-2019-14580_01_Reverse_Exploit_Then_Vuln__v1-en.srt",
        "locked": false,
        "thumbnail_location": null
    },
    "__Vulns1002_02_UninitializedData_02_Example_CVE-2021-270801_01_Background_and_Flaw__v1-en.srt": {
        "contentType": "application/octet-stream",
        "content_son": {
            "category": "asset",
            "course": "Vulns1002_C-derived",
            "name": "__Vulns1002_02_UninitializedData_02_Example_CVE-2021-270801_01_Background_and_Flaw__v1-en.srt",
            "org": "OpenSecurityTraining2",
            "revision": null,
            "run": "2022_v1",
            "tag": "c4x"
        },
        "displayname": "__Vulns1002_02_UninitializedData_02_Example_CVE-2021-270801_01_Background_and_Flaw__v1-en.srt",
        "filename": "asset-v1:OpenSecurityTraining2+Vulns1002_C-derived+2022_v1+type@asset+block@__Vulns1002_02_UninitializedData_02_Example_CVE-2021-270801_01_Background_and_Flaw__v1-en.srt",
        "import_path": "__Vulns1002_02_UninitializedData_02_Example_CVE-2021-270801_01_Background_and_Flaw__v1-en.srt",
        "locked": false,
        "thumbnail_location": null
    },
    "__Vulns1002_02_UninitializedData_02_Example_CVE-2021-3608_01_Background__v1-en.srt": {
        "contentType": "application/octet-stream",
        "content_son": {
            "category": "asset",
            "course": "Vulns1002_C-derived",
            "name": "__Vulns1002_02_UninitializedData_02_Example_CVE-2021-3608_01_Background__v1-en.srt",
            "org": "OpenSecurityTraining2",
            "revision": null,
            "run": "2022_v1",
            "tag": "c4x"
        },
        "displayname": "__Vulns1002_02_UninitializedData_02_Example_CVE-2021-3608_01_Background__v1-en.srt",
        "filename": "asset-v1:OpenSecurityTraining2+Vulns1002_C-derived+2022_v1+type@asset+block@__Vulns1002_02_UninitializedData_02_Example_CVE-2021-3608_01_Background__v1-en.srt",
        "import_path": "__Vulns1002_02_UninitializedData_02_Example_CVE-2021-3608_01_Background__v1-en.srt",
        "locked": false,
        "thumbnail_location": null
    },
    "__Vulns1002_02_UninitializedData_02_Example_CVE-2021-3608_02_FTF_Answer__v1-en.srt": {
        "contentType": "application/octet-stream",
        "content_son": {
            "category": "asset",
            "course": "Vulns1002_C-derived",
            "name": "__Vulns1002_02_UninitializedData_02_Example_CVE-2021-3608_02_FTF_Answer__v1-en.srt",
            "org": "OpenSecurityTraining2",
            "revision": null,
            "run": "2022_v1",
            "tag": "c4x"
        },
        "displayname": "__Vulns1002_02_UninitializedData_02_Example_CVE-2021-3608_02_FTF_Answer__v1-en.srt",
        "filename": "asset-v1:OpenSecurityTraining2+Vulns1002_C-derived+2022_v1+type@asset+block@__Vulns1002_02_UninitializedData_02_Example_CVE-2021-3608_02_FTF_Answer__v1-en.srt",
        "import_path": "__Vulns1002_02_UninitializedData_02_Example_CVE-2021-3608_02_FTF_Answer__v1-en.srt",
        "locked": false,
        "thumbnail_location": null
    },
    "__Vulns1002_02_UninitializedData_02_Example_CVE-2022-1809_01_Background__v1-en.srt": {
        "contentType": "application/octet-stream",
        "content_son": {
            "category": "asset",
            "course": "Vulns1002_C-derived",
            "name": "__Vulns1002_02_UninitializedData_02_Example_CVE-2022-1809_01_Background__v1-en.srt",
            "org": "OpenSecurityTraining2",
            "revision": null,
            "run": "2022_v1",
            "tag": "c4x"
        },
        "displayname": "__Vulns1002_02_UninitializedData_02_Example_CVE-2022-1809_01_Background__v1-en.srt",
        "filename": "asset-v1:OpenSecurityTraining2+Vulns1002_C-derived+2022_v1+type@asset+block@__Vulns1002_02_UninitializedData_02_Example_CVE-2022-1809_01_Background__v1-en.srt",
        "import_path": "__Vulns1002_02_UninitializedData_02_Example_CVE-2022-1809_01_Background__v1-en.srt",
        "locked": false,
        "thumbnail_location": null
    },
    "__Vulns1002_02_UninitializedData_02_Example_CVE-2022-1809_02_FTF_Answer__v1-en.srt": {
        "contentType": "application/octet-stream",
        "content_son": {
            "category": "asset",
            "course": "Vulns1002_C-derived",
            "name": "__Vulns1002_02_UninitializedData_02_Example_CVE-2022-1809_02_FTF_Answer__v1-en.srt",
            "org": "OpenSecurityTraining2",
            "revision": null,
            "run": "2022_v1",
            "tag": "c4x"
        },
        "displayname": "__Vulns1002_02_UninitializedData_02_Example_CVE-2022-1809_02_FTF_Answer__v1-en.srt",
        "filename": "asset-v1:OpenSecurityTraining2+Vulns1002_C-derived+2022_v1+type@asset+block@__Vulns1002_02_UninitializedData_02_Example_CVE-2022-1809_02_FTF_Answer__v1-en.srt",
        "import_path": "__Vulns1002_02_UninitializedData_02_Example_CVE-2022-1809_02_FTF_Answer__v1-en.srt",
        "locked": false,
        "thumbnail_location": null
    },
    "__Vulns1002_02_UninitializedData_02_Example_CVE-2022-26721_01_Background__v1-en.srt": {
        "contentType": "application/octet-stream",
        "content_son": {
            "category": "asset",
            "course": "Vulns1002_C-derived",
            "name": "__Vulns1002_02_UninitializedData_02_Example_CVE-2022-26721_01_Background__v1-en.srt",
            "org": "OpenSecurityTraining2",
            "revision": null,
            "run": "2022_v1",
            "tag": "c4x"
        },
        "displayname": "__Vulns1002_02_UninitializedData_02_Example_CVE-2022-26721_01_Background__v1-en.srt",
        "filename": "asset-v1:OpenSecurityTraining2+Vulns1002_C-derived+2022_v1+type@asset+block@__Vulns1002_02_UninitializedData_02_Example_CVE-2022-26721_01_Background__v1-en.srt",
        "import_path": "__Vulns1002_02_UninitializedData_02_Example_CVE-2022-26721_01_Background__v1-en.srt",
        "locked": false,
        "thumbnail_location": null
    },
    "__Vulns1002_02_UninitializedData_02_Example_CVE-2022-26721_02_FTF_Answer1__v1-en.srt": {
        "contentType": "application/octet-stream",
        "content_son": {
            "category": "asset",
            "course": "Vulns1002_C-derived",
            "name": "__Vulns1002_02_UninitializedData_02_Example_CVE-2022-26721_02_FTF_Answer1__v1-en.srt",
            "org": "OpenSecurityTraining2",
            "revision": null,
            "run": "2022_v1",
            "tag": "c4x"
        },
        "displayname": "__Vulns1002_02_UninitializedData_02_Example_CVE-2022-26721_02_FTF_Answer1__v1-en.srt",
        "filename": "asset-v1:OpenSecurityTraining2+Vulns1002_C-derived+2022_v1+type@asset+block@__Vulns1002_02_UninitializedData_02_Example_CVE-2022-26721_02_FTF_Answer1__v1-en.srt",
        "import_path": "__Vulns1002_02_UninitializedData_02_Example_CVE-2022-26721_02_FTF_Answer1__v1-en.srt",
        "locked": false,
        "thumbnail_location": null
    },
    "__Vulns1002_02_UninitializedData_02_Example_CVE-2022-26721_03_FTF_Answer2__v1-en.srt": {
        "contentType": "application/octet-stream",
        "content_son": {
            "category": "asset",
            "course": "Vulns1002_C-derived",
            "name": "__Vulns1002_02_UninitializedData_02_Example_CVE-2022-26721_03_FTF_Answer2__v1-en.srt",
            "org": "OpenSecurityTraining2",
            "revision": null,
            "run": "2022_v1",
            "tag": "c4x"
        },
        "displayname": "__Vulns1002_02_UninitializedData_02_Example_CVE-2022-26721_03_FTF_Answer2__v1-en.srt",
        "filename": "asset-v1:OpenSecurityTraining2+Vulns1002_C-derived+2022_v1+type@asset+block@__Vulns1002_02_UninitializedData_02_Example_CVE-2022-26721_03_FTF_Answer2__v1-en.srt",
        "import_path": "__Vulns1002_02_UninitializedData_02_Example_CVE-2022-26721_03_FTF_Answer2__v1-en.srt",
        "locked": false,
        "thumbnail_location": null
    },
    "__Vulns1002_02_UninitializedData_02_Example_CVE-2022-29968_01_Background__v1-en.srt": {
        "contentType": "application/octet-stream",
        "content_son": {
            "category": "asset",
            "course": "Vulns1002_C-derived",
            "name": "__Vulns1002_02_UninitializedData_02_Example_CVE-2022-29968_01_Background__v1-en.srt",
            "org": "OpenSecurityTraining2",
            "revision": null,
            "run": "2022_v1",
            "tag": "c4x"
        },
        "displayname": "__Vulns1002_02_UninitializedData_02_Example_CVE-2022-29968_01_Background__v1-en.srt",
        "filename": "asset-v1:OpenSecurityTraining2+Vulns1002_C-derived+2022_v1+type@asset+block@__Vulns1002_02_UninitializedData_02_Example_CVE-2022-29968_01_Background__v1-en.srt",
        "import_path": "__Vulns1002_02_UninitializedData_02_Example_CVE-2022-29968_01_Background__v1-en.srt",
        "locked": false,
        "thumbnail_location": null
    },
    "__Vulns1002_02_UninitializedData_02_Example_CVE-2022-29968_02_FTF_Answer__v1-en.srt": {
        "contentType": "application/octet-stream",
        "content_son": {
            "category": "asset",
            "course": "Vulns1002_C-derived",
            "name": "__Vulns1002_02_UninitializedData_02_Example_CVE-2022-29968_02_FTF_Answer__v1-en.srt",
            "org": "OpenSecurityTraining2",
            "revision": null,
            "run": "2022_v1",
            "tag": "c4x"
        },
        "displayname": "__Vulns1002_02_UninitializedData_02_Example_CVE-2022-29968_02_FTF_Answer__v1-en.srt",
        "filename": "asset-v1:OpenSecurityTraining2+Vulns1002_C-derived+2022_v1+type@asset+block@__Vulns1002_02_UninitializedData_02_Example_CVE-2022-29968_02_FTF_Answer__v1-en.srt",
        "import_path": "__Vulns1002_02_UninitializedData_02_Example_CVE-2022-29968_02_FTF_Answer__v1-en.srt",
        "locked": false,
        "thumbnail_location": null
    },
    "__Vulns1002_03_RaceConditions_01_Overview_01__v1-en.srt": {
        "contentType": "application/octet-stream",
        "content_son": {
            "category": "asset",
            "course": "Vulns1002_C-derived",
            "name": "__Vulns1002_03_RaceConditions_01_Overview_01__v1-en.srt",
            "org": "OpenSecurityTraining2",
            "revision": null,
            "run": "2022_v1",
            "tag": "c4x"
        },
        "displayname": "__Vulns1002_03_RaceConditions_01_Overview_01__v1-en.srt",
        "filename": "asset-v1:OpenSecurityTraining2+Vulns1002_C-derived+2022_v1+type@asset+block@__Vulns1002_03_RaceConditions_01_Overview_01__v1-en.srt",
        "import_path": "__Vulns1002_03_RaceConditions_01_Overview_01__v1-en.srt",
        "locked": false,
        "thumbnail_location": null
    },
    "__Vulns1002_03_RaceConditions_01_Overview_02_OutOfScopeRaces__v1-en.srt": {
        "contentType": "application/octet-stream",
        "content_son": {
            "category": "asset",
            "course": "Vulns1002_C-derived",
            "name": "__Vulns1002_03_RaceConditions_01_Overview_02_OutOfScopeRaces__v1-en.srt",
            "org": "OpenSecurityTraining2",
            "revision": null,
            "run": "2022_v1",
            "tag": "c4x"
        },
        "displayname": "__Vulns1002_03_RaceConditions_01_Overview_02_OutOfScopeRaces__v1-en.srt",
        "filename": "asset-v1:OpenSecurityTraining2+Vulns1002_C-derived+2022_v1+type@asset+block@__Vulns1002_03_RaceConditions_01_Overview_02_OutOfScopeRaces__v1-en.srt",
        "import_path": "__Vulns1002_03_RaceConditions_01_Overview_02_OutOfScopeRaces__v1-en.srt",
        "locked": false,
        "thumbnail_location": null
    },
    "__Vulns1002_03_RaceConditions_02_Example_CVE-2019-11098_01_Background_and_Flaw__v1-en.srt": {
        "contentType": "application/octet-stream",
        "content_son": {
            "category": "asset",
            "course": "Vulns1002_C-derived",
            "name": "__Vulns1002_03_RaceConditions_02_Example_CVE-2019-11098_01_Background_and_Flaw__v1-en.srt",
            "org": "OpenSecurityTraining2",
            "revision": null,
            "run": "2022_v1",
            "tag": "c4x"
        },
        "displayname": "__Vulns1002_03_RaceConditions_02_Example_CVE-2019-11098_01_Background_and_Flaw__v1-en.srt",
        "filename": "asset-v1:OpenSecurityTraining2+Vulns1002_C-derived+2022_v1+type@asset+block@__Vulns1002_03_RaceConditions_02_Example_CVE-2019-11098_01_Background_and_Flaw__v1-en.srt",
        "import_path": "__Vulns1002_03_RaceConditions_02_Example_CVE-2019-11098_01_Background_and_Flaw__v1-en.srt",
        "locked": false,
        "thumbnail_location": null
    },
    "__Vulns1002_03_RaceConditions_02_Example_CVE-2019-11098_02_Exploit__v1-en.srt": {
        "contentType": "application/octet-stream",
        "content_son": {
            "category": "asset",
            "course": "Vulns1002_C-derived",
            "name": "__Vulns1002_03_RaceConditions_02_Example_CVE-2019-11098_02_Exploit__v1-en.srt",
            "org": "OpenSecurityTraining2",
            "revision": null,
            "run": "2022_v1",
            "tag": "c4x"
        },
        "displayname": "__Vulns1002_03_RaceConditions_02_Example_CVE-2019-11098_02_Exploit__v1-en.srt",
        "filename": "asset-v1:OpenSecurityTraining2+Vulns1002_C-derived+2022_v1+type@asset+block@__Vulns1002_03_RaceConditions_02_Example_CVE-2019-11098_02_Exploit__v1-en.srt",
        "import_path": "__Vulns1002_03_RaceConditions_02_Example_CVE-2019-11098_02_Exploit__v1-en.srt",
        "locked": false,
        "thumbnail_location": null
    },
    "__Vulns1002_03_RaceConditions_02_Example_CVE-2020-7460_01_Background__v1-en.srt": {
        "contentType": "application/octet-stream",
        "content_son": {
            "category": "asset",
            "course": "Vulns1002_C-derived",
            "name": "__Vulns1002_03_RaceConditions_02_Example_CVE-2020-7460_01_Background__v1-en.srt",
            "org": "OpenSecurityTraining2",
            "revision": null,
            "run": "2022_v1",
            "tag": "c4x"
        },
        "displayname": "__Vulns1002_03_RaceConditions_02_Example_CVE-2020-7460_01_Background__v1-en.srt",
        "filename": "asset-v1:OpenSecurityTraining2+Vulns1002_C-derived+2022_v1+type@asset+block@__Vulns1002_03_RaceConditions_02_Example_CVE-2020-7460_01_Background__v1-en.srt",
        "import_path": "__Vulns1002_03_RaceConditions_02_Example_CVE-2020-7460_01_Background__v1-en.srt",
        "locked": false,
        "thumbnail_location": null
    },
    "__Vulns1002_03_RaceConditions_02_Example_CVE-2020-7460_02_FTF_Answer__v1-en.srt": {
        "contentType": "application/octet-stream",
        "content_son": {
            "category": "asset",
            "course": "Vulns1002_C-derived",
            "name": "__Vulns1002_03_RaceConditions_02_Example_CVE-2020-7460_02_FTF_Answer__v1-en.srt",
            "org": "OpenSecurityTraining2",
            "revision": null,
            "run": "2022_v1",
            "tag": "c4x"
        },
        "displayname": "__Vulns1002_03_RaceConditions_02_Example_CVE-2020-7460_02_FTF_Answer__v1-en.srt",
        "filename": "asset-v1:OpenSecurityTraining2+Vulns1002_C-derived+2022_v1+type@asset+block@__Vulns1002_03_RaceConditions_02_Example_CVE-2020-7460_02_FTF_Answer__v1-en.srt",
        "import_path": "__Vulns1002_03_RaceConditions_02_Example_CVE-2020-7460_02_FTF_Answer__v1-en.srt",
        "locked": false,
        "thumbnail_location": null
    },
    "__Vulns1002_03_RaceConditions_02_Example_CVE-2021-34514_01_Background__v1-en.srt": {
        "contentType": "application/octet-stream",
        "content_son": {
            "category": "asset",
            "course": "Vulns1002_C-derived",
            "name": "__Vulns1002_03_RaceConditions_02_Example_CVE-2021-34514_01_Background__v1-en.srt",
            "org": "OpenSecurityTraining2",
            "revision": null,
            "run": "2022_v1",
            "tag": "c4x"
        },
        "displayname": "__Vulns1002_03_RaceConditions_02_Example_CVE-2021-34514_01_Background__v1-en.srt",
        "filename": "asset-v1:OpenSecurityTraining2+Vulns1002_C-derived+2022_v1+type@asset+block@__Vulns1002_03_RaceConditions_02_Example_CVE-2021-34514_01_Background__v1-en.srt",
        "import_path": "__Vulns1002_03_RaceConditions_02_Example_CVE-2021-34514_01_Background__v1-en.srt",
        "locked": false,
        "thumbnail_location": null
    },
    "__Vulns1002_03_RaceConditions_02_Example_CVE-2021-34514_02_FTF_Answer__v1-en.srt": {
        "contentType": "application/octet-stream",
        "content_son": {
            "category": "asset",
            "course": "Vulns1002_C-derived",
            "name": "__Vulns1002_03_RaceConditions_02_Example_CVE-2021-34514_02_FTF_Answer__v1-en.srt",
            "org": "OpenSecurityTraining2",
            "revision": null,
            "run": "2022_v1",
            "tag": "c4x"
        },
        "displayname": "__Vulns1002_03_RaceConditions_02_Example_CVE-2021-34514_02_FTF_Answer__v1-en.srt",
        "filename": "asset-v1:OpenSecurityTraining2+Vulns1002_C-derived+2022_v1+type@asset+block@__Vulns1002_03_RaceConditions_02_Example_CVE-2021-34514_02_FTF_Answer__v1-en.srt",
        "import_path": "__Vulns1002_03_RaceConditions_02_Example_CVE-2021-34514_02_FTF_Answer__v1-en.srt",
        "locked": false,
        "thumbnail_location": null
    },
    "__Vulns1002_03_RaceConditions_02_Example_CVE-2021-4207_X_01_Background__v1-en.srt": {
        "contentType": "application/octet-stream",
        "content_son": {
            "category": "asset",
            "course": "Vulns1002_C-derived",
            "name": "__Vulns1002_03_RaceConditions_02_Example_CVE-2021-4207_X_01_Background__v1-en.srt",
            "org": "OpenSecurityTraining2",
            "revision": null,
            "run": "2022_v1",
            "tag": "c4x"
        },
        "displayname": "__Vulns1002_03_RaceConditions_02_Example_CVE-2021-4207_X_01_Background__v1-en.srt",
        "filename": "asset-v1:OpenSecurityTraining2+Vulns1002_C-derived+2022_v1+type@asset+block@__Vulns1002_03_RaceConditions_02_Example_CVE-2021-4207_X_01_Background__v1-en.srt",
        "import_path": "__Vulns1002_03_RaceConditions_02_Example_CVE-2021-4207_X_01_Background__v1-en.srt",
        "locked": false,
        "thumbnail_location": null
    },
    "__Vulns1002_03_RaceConditions_02_Example_CVE-2021-4207_X_02_FTF_Answer__v1-en.srt": {
        "contentType": "application/octet-stream",
        "content_son": {
            "category": "asset",
            "course": "Vulns1002_C-derived",
            "name": "__Vulns1002_03_RaceConditions_02_Example_CVE-2021-4207_X_02_FTF_Answer__v1-en.srt",
            "org": "OpenSecurityTraining2",
            "revision": null,
            "run": "2022_v1",
            "tag": "c4x"
        },
        "displayname": "__Vulns1002_03_RaceConditions_02_Example_CVE-2021-4207_X_02_FTF_Answer__v1-en.srt",
        "filename": "asset-v1:OpenSecurityTraining2+Vulns1002_C-derived+2022_v1+type@asset+block@__Vulns1002_03_RaceConditions_02_Example_CVE-2021-4207_X_02_FTF_Answer__v1-en.srt",
        "import_path": "__Vulns1002_03_RaceConditions_02_Example_CVE-2021-4207_X_02_FTF_Answer__v1-en.srt",
        "locked": false,
        "thumbnail_location": null
    },
    "__Vulns1002_03_RaceConditions_02_Example_CVE-None-MSMu_01_Background__v1-en.srt": {
        "contentType": "application/octet-stream",
        "content_son": {
            "category": "asset",
            "course": "Vulns1002_C-derived",
            "name": "__Vulns1002_03_RaceConditions_02_Example_CVE-None-MSMu_01_Background__v1-en.srt",
            "org": "OpenSecurityTraining2",
            "revision": null,
            "run": "2022_v1",
            "tag": "c4x"
        },
        "displayname": "__Vulns1002_03_RaceConditions_02_Example_CVE-None-MSMu_01_Background__v1-en.srt",
        "filename": "asset-v1:OpenSecurityTraining2+Vulns1002_C-derived+2022_v1+type@asset+block@__Vulns1002_03_RaceConditions_02_Example_CVE-None-MSMu_01_Background__v1-en.srt",
        "import_path": "__Vulns1002_03_RaceConditions_02_Example_CVE-None-MSMu_01_Background__v1-en.srt",
        "locked": false,
        "thumbnail_location": null
    },
    "__Vulns1002_03_RaceConditions_02_Example_CVE-None-MSMu_02_FTF_Answer__v1-en.srt": {
        "contentType": "application/octet-stream",
        "content_son": {
            "category": "asset",
            "course": "Vulns1002_C-derived",
            "name": "__Vulns1002_03_RaceConditions_02_Example_CVE-None-MSMu_02_FTF_Answer__v1-en.srt",
            "org": "OpenSecurityTraining2",
            "revision": null,
            "run": "2022_v1",
            "tag": "c4x"
        },
        "displayname": "__Vulns1002_03_RaceConditions_02_Example_CVE-None-MSMu_02_FTF_Answer__v1-en.srt",
        "filename": "asset-v1:OpenSecurityTraining2+Vulns1002_C-derived+2022_v1+type@asset+block@__Vulns1002_03_RaceConditions_02_Example_CVE-None-MSMu_02_FTF_Answer__v1-en.srt",
        "import_path": "__Vulns1002_03_RaceConditions_02_Example_CVE-None-MSMu_02_FTF_Answer__v1-en.srt",
        "locked": false,
        "thumbnail_location": null
    },
    "__Vulns1002_03_RaceConditions_02_Example_CVE-None-QualcommWiFiSB_01_Background_and_Flaw__v1-en.srt": {
        "contentType": "application/octet-stream",
        "content_son": {
            "category": "asset",
            "course": "Vulns1002_C-derived",
            "name": "__Vulns1002_03_RaceConditions_02_Example_CVE-None-QualcommWiFiSB_01_Background_and_Flaw__v1-en.srt",
            "org": "OpenSecurityTraining2",
            "revision": null,
            "run": "2022_v1",
            "tag": "c4x"
        },
        "displayname": "__Vulns1002_03_RaceConditions_02_Example_CVE-None-QualcommWiFiSB_01_Background_and_Flaw__v1-en.srt",
        "filename": "asset-v1:OpenSecurityTraining2+Vulns1002_C-derived+2022_v1+type@asset+block@__Vulns1002_03_RaceConditions_02_Example_CVE-None-QualcommWiFiSB_01_Background_and_Flaw__v1-en.srt",
        "import_path": "__Vulns1002_03_RaceConditions_02_Example_CVE-None-QualcommWiFiSB_01_Background_and_Flaw__v1-en.srt",
        "locked": false,
        "thumbnail_location": null
    },
    "__Vulns1002_04_UAF_01_Overview__v1-en.srt": {
        "contentType": "application/octet-stream",
        "content_son": {
            "category": "asset",
            "course": "Vulns1002_C-derived",
            "name": "__Vulns1002_04_UAF_01_Overview__v1-en.srt",
            "org": "OpenSecurityTraining2",
            "revision": null,
            "run": "2022_v1",
            "tag": "c4x"
        },
        "displayname": "__Vulns1002_04_UAF_01_Overview__v1-en.srt",
        "filename": "asset-v1:OpenSecurityTraining2+Vulns1002_C-derived+2022_v1+type@asset+block@__Vulns1002_04_UAF_01_Overview__v1-en.srt",
        "import_path": "__Vulns1002_04_UAF_01_Overview__v1-en.srt",
        "locked": false,
        "thumbnail_location": null
    },
    "__Vulns1002_04_UAF_02_Example_CVE-2020-2674_01_Background__v1-en.srt": {
        "contentType": "application/octet-stream",
        "content_son": {
            "category": "asset",
            "course": "Vulns1002_C-derived",
            "name": "__Vulns1002_04_UAF_02_Example_CVE-2020-2674_01_Background__v1-en.srt",
            "org": "OpenSecurityTraining2",
            "revision": null,
            "run": "2022_v1",
            "tag": "c4x"
        },
        "displayname": "__Vulns1002_04_UAF_02_Example_CVE-2020-2674_01_Background__v1-en.srt",
        "filename": "asset-v1:OpenSecurityTraining2+Vulns1002_C-derived+2022_v1+type@asset+block@__Vulns1002_04_UAF_02_Example_CVE-2020-2674_01_Background__v1-en.srt",
        "import_path": "__Vulns1002_04_UAF_02_Example_CVE-2020-2674_01_Background__v1-en.srt",
        "locked": false,
        "thumbnail_location": null
    },
    "__Vulns1002_04_UAF_02_Example_CVE-2020-2674_02_FTF_Answer__v1-en.srt": {
        "contentType": "application/octet-stream",
        "content_son": {
            "category": "asset",
            "course": "Vulns1002_C-derived",
            "name": "__Vulns1002_04_UAF_02_Example_CVE-2020-2674_02_FTF_Answer__v1-en.srt",
            "org": "OpenSecurityTraining2",
            "revision": null,
            "run": "2022_v1",
            "tag": "c4x"
        },
        "displayname": "__Vulns1002_04_UAF_02_Example_CVE-2020-2674_02_FTF_Answer__v1-en.srt",
        "filename": "asset-v1:OpenSecurityTraining2+Vulns1002_C-derived+2022_v1+type@asset+block@__Vulns1002_04_UAF_02_Example_CVE-2020-2674_02_FTF_Answer__v1-en.srt",
        "import_path": "__Vulns1002_04_UAF_02_Example_CVE-2020-2674_02_FTF_Answer__v1-en.srt",
        "locked": false,
        "thumbnail_location": null
    },
    "__Vulns1002_04_UAF_02_Example_CVE-2020-27582_01_Background__v1-en.srt": {
        "contentType": "application/octet-stream",
        "content_son": {
            "category": "asset",
            "course": "Vulns1002_C-derived",
            "name": "__Vulns1002_04_UAF_02_Example_CVE-2020-27582_01_Background__v1-en.srt",
            "org": "OpenSecurityTraining2",
            "revision": null,
            "run": "2022_v1",
            "tag": "c4x"
        },
        "displayname": "__Vulns1002_04_UAF_02_Example_CVE-2020-27582_01_Background__v1-en.srt",
        "filename": "asset-v1:OpenSecurityTraining2+Vulns1002_C-derived+2022_v1+type@asset+block@__Vulns1002_04_UAF_02_Example_CVE-2020-27582_01_Background__v1-en.srt",
        "import_path": "__Vulns1002_04_UAF_02_Example_CVE-2020-27582_01_Background__v1-en.srt",
        "locked": false,
        "thumbnail_location": null
    },
    "__Vulns1002_04_UAF_02_Example_CVE-2020-27582_02_FTF_Answer__v1-en.srt": {
        "contentType": "application/octet-stream",
        "content_son": {
            "category": "asset",
            "course": "Vulns1002_C-derived",
            "name": "__Vulns1002_04_UAF_02_Example_CVE-2020-27582_02_FTF_Answer__v1-en.srt",
            "org": "OpenSecurityTraining2",
            "revision": null,
            "run": "2022_v1",
            "tag": "c4x"
        },
        "displayname": "__Vulns1002_04_UAF_02_Example_CVE-2020-27582_02_FTF_Answer__v1-en.srt",
        "filename": "asset-v1:OpenSecurityTraining2+Vulns1002_C-derived+2022_v1+type@asset+block@__Vulns1002_04_UAF_02_Example_CVE-2020-27582_02_FTF_Answer__v1-en.srt",
        "import_path": "__Vulns1002_04_UAF_02_Example_CVE-2020-27582_02_FTF_Answer__v1-en.srt",
        "locked": false,
        "thumbnail_location": null
    },
    "__Vulns1002_04_UAF_02_Example_CVE-2020-29661_01_Background__v1-en.srt": {
        "contentType": "application/octet-stream",
        "content_son": {
            "category": "asset",
            "course": "Vulns1002_C-derived",
            "name": "__Vulns1002_04_UAF_02_Example_CVE-2020-29661_01_Background__v1-en.srt",
            "org": "OpenSecurityTraining2",
            "revision": null,
            "run": "2022_v1",
            "tag": "c4x"
        },
        "displayname": "__Vulns1002_04_UAF_02_Example_CVE-2020-29661_01_Background__v1-en.srt",
        "filename": "asset-v1:OpenSecurityTraining2+Vulns1002_C-derived+2022_v1+type@asset+block@__Vulns1002_04_UAF_02_Example_CVE-2020-29661_01_Background__v1-en.srt",
        "import_path": "__Vulns1002_04_UAF_02_Example_CVE-2020-29661_01_Background__v1-en.srt",
        "locked": false,
        "thumbnail_location": null
    },
    "__Vulns1002_04_UAF_02_Example_CVE-2020-29661_02_FTF_Answer__v1-en.srt": {
        "contentType": "application/octet-stream",
        "content_son": {
            "category": "asset",
            "course": "Vulns1002_C-derived",
            "name": "__Vulns1002_04_UAF_02_Example_CVE-2020-29661_02_FTF_Answer__v1-en.srt",
            "org": "OpenSecurityTraining2",
            "revision": null,
            "run": "2022_v1",
            "tag": "c4x"
        },
        "displayname": "__Vulns1002_04_UAF_02_Example_CVE-2020-29661_02_FTF_Answer__v1-en.srt",
        "filename": "asset-v1:OpenSecurityTraining2+Vulns1002_C-derived+2022_v1+type@asset+block@__Vulns1002_04_UAF_02_Example_CVE-2020-29661_02_FTF_Answer__v1-en.srt",
        "import_path": "__Vulns1002_04_UAF_02_Example_CVE-2020-29661_02_FTF_Answer__v1-en.srt",
        "locked": false,
        "thumbnail_location": null
    },
    "__Vulns1002_04_UAF_02_Example_CVE-2020-29661_03_Exploit__v1-en.srt": {
        "contentType": "application/octet-stream",
        "content_son": {
            "category": "asset",
            "course": "Vulns1002_C-derived",
            "name": "__Vulns1002_04_UAF_02_Example_CVE-2020-29661_03_Exploit__v1-en.srt",
            "org": "OpenSecurityTraining2",
            "revision": null,
            "run": "2022_v1",
            "tag": "c4x"
        },
        "displayname": "__Vulns1002_04_UAF_02_Example_CVE-2020-29661_03_Exploit__v1-en.srt",
        "filename": "asset-v1:OpenSecurityTraining2+Vulns1002_C-derived+2022_v1+type@asset+block@__Vulns1002_04_UAF_02_Example_CVE-2020-29661_03_Exploit__v1-en.srt",
        "import_path": "__Vulns1002_04_UAF_02_Example_CVE-2020-29661_03_Exploit__v1-en.srt",
        "locked": false,
        "thumbnail_location": null
    },
    "__Vulns1002_04_UAF_02_Example_CVE-2020-9715_01_Background_and_Flaw__v1-en.srt": {
        "contentType": "application/octet-stream",
        "content_son": {
            "category": "asset",
            "course": "Vulns1002_C-derived",
            "name": "__Vulns1002_04_UAF_02_Example_CVE-2020-9715_01_Background_and_Flaw__v1-en.srt",
            "org": "OpenSecurityTraining2",
            "revision": null,
            "run": "2022_v1",
            "tag": "c4x"
        },
        "displayname": "__Vulns1002_04_UAF_02_Example_CVE-2020-9715_01_Background_and_Flaw__v1-en.srt",
        "filename": "asset-v1:OpenSecurityTraining2+Vulns1002_C-derived+2022_v1+type@asset+block@__Vulns1002_04_UAF_02_Example_CVE-2020-9715_01_Background_and_Flaw__v1-en.srt",
        "import_path": "__Vulns1002_04_UAF_02_Example_CVE-2020-9715_01_Background_and_Flaw__v1-en.srt",
        "locked": false,
        "thumbnail_location": null
    },
    "__Vulns1002_04_UAF_02_Example_CVE-2021-284602_01_Background__v1-en.srt": {
        "contentType": "application/octet-stream",
        "content_son": {
            "category": "asset",
            "course": "Vulns1002_C-derived",
            "name": "__Vulns1002_04_UAF_02_Example_CVE-2021-284602_01_Background__v1-en.srt",
            "org": "OpenSecurityTraining2",
            "revision": null,
            "run": "2022_v1",
            "tag": "c4x"
        },
        "displayname": "__Vulns1002_04_UAF_02_Example_CVE-2021-284602_01_Background__v1-en.srt",
        "filename": "asset-v1:OpenSecurityTraining2+Vulns1002_C-derived+2022_v1+type@asset+block@__Vulns1002_04_UAF_02_Example_CVE-2021-284602_01_Background__v1-en.srt",
        "import_path": "__Vulns1002_04_UAF_02_Example_CVE-2021-284602_01_Background__v1-en.srt",
        "locked": false,
        "thumbnail_location": null
    },
    "__Vulns1002_04_UAF_02_Example_CVE-2021-284602_02_FTF_Answer__v1-en.srt": {
        "contentType": "application/octet-stream",
        "content_son": {
            "category": "asset",
            "course": "Vulns1002_C-derived",
            "name": "__Vulns1002_04_UAF_02_Example_CVE-2021-284602_02_FTF_Answer__v1-en.srt",
            "org": "OpenSecurityTraining2",
            "revision": null,
            "run": "2022_v1",
            "tag": "c4x"
        },
        "displayname": "__Vulns1002_04_UAF_02_Example_CVE-2021-284602_02_FTF_Answer__v1-en.srt",
        "filename": "asset-v1:OpenSecurityTraining2+Vulns1002_C-derived+2022_v1+type@asset+block@__Vulns1002_04_UAF_02_Example_CVE-2021-284602_02_FTF_Answer__v1-en.srt",
        "import_path": "__Vulns1002_04_UAF_02_Example_CVE-2021-284602_02_FTF_Answer__v1-en.srt",
        "locked": false,
        "thumbnail_location": null
    },
    "__Vulns1002_04_UAF_02_Example_CVE-2021-36955_01_Background__v1-en.srt": {
        "contentType": "application/octet-stream",
        "content_son": {
            "category": "asset",
            "course": "Vulns1002_C-derived",
            "name": "__Vulns1002_04_UAF_02_Example_CVE-2021-36955_01_Background__v1-en.srt",
            "org": "OpenSecurityTraining2",
            "revision": null,
            "run": "2022_v1",
            "tag": "c4x"
        },
        "displayname": "__Vulns1002_04_UAF_02_Example_CVE-2021-36955_01_Background__v1-en.srt",
        "filename": "asset-v1:OpenSecurityTraining2+Vulns1002_C-derived+2022_v1+type@asset+block@__Vulns1002_04_UAF_02_Example_CVE-2021-36955_01_Background__v1-en.srt",
        "import_path": "__Vulns1002_04_UAF_02_Example_CVE-2021-36955_01_Background__v1-en.srt",
        "locked": false,
        "thumbnail_location": null
    },
    "__Vulns1002_04_UAF_02_Example_CVE-2021-36955_02_FTF_Answer__v1-en.srt": {
        "contentType": "application/octet-stream",
        "content_son": {
            "category": "asset",
            "course": "Vulns1002_C-derived",
            "name": "__Vulns1002_04_UAF_02_Example_CVE-2021-36955_02_FTF_Answer__v1-en.srt",
            "org": "OpenSecurityTraining2",
            "revision": null,
            "run": "2022_v1",
            "tag": "c4x"
        },
        "displayname": "__Vulns1002_04_UAF_02_Example_CVE-2021-36955_02_FTF_Answer__v1-en.srt",
        "filename": "asset-v1:OpenSecurityTraining2+Vulns1002_C-derived+2022_v1+type@asset+block@__Vulns1002_04_UAF_02_Example_CVE-2021-36955_02_FTF_Answer__v1-en.srt",
        "import_path": "__Vulns1002_04_UAF_02_Example_CVE-2021-36955_02_FTF_Answer__v1-en.srt",
        "locked": false,
        "thumbnail_location": null
    },
    "__Vulns1002_05_TypeConfusion_01_Overview__v1-en.srt": {
        "contentType": "application/octet-stream",
        "content_son": {
            "category": "asset",
            "course": "Vulns1002_C-derived",
            "name": "__Vulns1002_05_TypeConfusion_01_Overview__v1-en.srt",
            "org": "OpenSecurityTraining2",
            "revision": null,
            "run": "2022_v1",
            "tag": "c4x"
        },
        "displayname": "__Vulns1002_05_TypeConfusion_01_Overview__v1-en.srt",
        "filename": "asset-v1:OpenSecurityTraining2+Vulns1002_C-derived+2022_v1+type@asset+block@__Vulns1002_05_TypeConfusion_01_Overview__v1-en.srt",
        "import_path": "__Vulns1002_05_TypeConfusion_01_Overview__v1-en.srt",
        "locked": false,
        "thumbnail_location": null
    },
    "__Vulns1002_05_TypeConfusion_02_Example_CVE-2020-27932_01_Background__v1-en.srt": {
        "contentType": "application/octet-stream",
        "content_son": {
            "category": "asset",
            "course": "Vulns1002_C-derived",
            "name": "__Vulns1002_05_TypeConfusion_02_Example_CVE-2020-27932_01_Background__v1-en.srt",
            "org": "OpenSecurityTraining2",
            "revision": null,
            "run": "2022_v1",
            "tag": "c4x"
        },
        "displayname": "__Vulns1002_05_TypeConfusion_02_Example_CVE-2020-27932_01_Background__v1-en.srt",
        "filename": "asset-v1:OpenSecurityTraining2+Vulns1002_C-derived+2022_v1+type@asset+block@__Vulns1002_05_TypeConfusion_02_Example_CVE-2020-27932_01_Background__v1-en.srt",
        "import_path": "__Vulns1002_05_TypeConfusion_02_Example_CVE-2020-27932_01_Background__v1-en.srt",
        "locked": false,
        "thumbnail_location": null
    },
    "__Vulns1002_05_TypeConfusion_02_Example_CVE-2020-27932_02_FTF_Answer__v1-en.srt": {
        "contentType": "application/octet-stream",
        "content_son": {
            "category": "asset",
            "course": "Vulns1002_C-derived",
            "name": "__Vulns1002_05_TypeConfusion_02_Example_CVE-2020-27932_02_FTF_Answer__v1-en.srt",
            "org": "OpenSecurityTraining2",
            "revision": null,
            "run": "2022_v1",
            "tag": "c4x"
        },
        "displayname": "__Vulns1002_05_TypeConfusion_02_Example_CVE-2020-27932_02_FTF_Answer__v1-en.srt",
        "filename": "asset-v1:OpenSecurityTraining2+Vulns1002_C-derived+2022_v1+type@asset+block@__Vulns1002_05_TypeConfusion_02_Example_CVE-2020-27932_02_FTF_Answer__v1-en.srt",
        "import_path": "__Vulns1002_05_TypeConfusion_02_Example_CVE-2020-27932_02_FTF_Answer__v1-en.srt",
        "locked": false,
        "thumbnail_location": null
    },
    "__Vulns1002_05_TypeConfusion_02_Example_CVE-2020-27932_03_Variant_Analysis__v1-en.srt": {
        "contentType": "application/octet-stream",
        "content_son": {
            "category": "asset",
            "course": "Vulns1002_C-derived",
            "name": "__Vulns1002_05_TypeConfusion_02_Example_CVE-2020-27932_03_Variant_Analysis__v1-en.srt",
            "org": "OpenSecurityTraining2",
            "revision": null,
            "run": "2022_v1",
            "tag": "c4x"
        },
        "displayname": "__Vulns1002_05_TypeConfusion_02_Example_CVE-2020-27932_03_Variant_Analysis__v1-en.srt",
        "filename": "asset-v1:OpenSecurityTraining2+Vulns1002_C-derived+2022_v1+type@asset+block@__Vulns1002_05_TypeConfusion_02_Example_CVE-2020-27932_03_Variant_Analysis__v1-en.srt",
        "import_path": "__Vulns1002_05_TypeConfusion_02_Example_CVE-2020-27932_03_Variant_Analysis__v1-en.srt",
        "locked": false,
        "thumbnail_location": null
    },
    "__Vulns1002_05_TypeConfusion_02_Example_CVE-2020-3853_01_Background__v1-en.srt": {
        "contentType": "application/octet-stream",
        "content_son": {
            "category": "asset",
            "course": "Vulns1002_C-derived",
            "name": "__Vulns1002_05_TypeConfusion_02_Example_CVE-2020-3853_01_Background__v1-en.srt",
            "org": "OpenSecurityTraining2",
            "revision": null,
            "run": "2022_v1",
            "tag": "c4x"
        },
        "displayname": "__Vulns1002_05_TypeConfusion_02_Example_CVE-2020-3853_01_Background__v1-en.srt",
        "filename": "asset-v1:OpenSecurityTraining2+Vulns1002_C-derived+2022_v1+type@asset+block@__Vulns1002_05_TypeConfusion_02_Example_CVE-2020-3853_01_Background__v1-en.srt",
        "import_path": "__Vulns1002_05_TypeConfusion_02_Example_CVE-2020-3853_01_Background__v1-en.srt",
        "locked": false,
        "thumbnail_location": null
    },
    "__Vulns1002_05_TypeConfusion_02_Example_CVE-2020-3853_02_FTF_Answer__v1-en.srt": {
        "contentType": "application/octet-stream",
        "content_son": {
            "category": "asset",
            "course": "Vulns1002_C-derived",
            "name": "__Vulns1002_05_TypeConfusion_02_Example_CVE-2020-3853_02_FTF_Answer__v1-en.srt",
            "org": "OpenSecurityTraining2",
            "revision": null,
            "run": "2022_v1",
            "tag": "c4x"
        },
        "displayname": "__Vulns1002_05_TypeConfusion_02_Example_CVE-2020-3853_02_FTF_Answer__v1-en.srt",
        "filename": "asset-v1:OpenSecurityTraining2+Vulns1002_C-derived+2022_v1+type@asset+block@__Vulns1002_05_TypeConfusion_02_Example_CVE-2020-3853_02_FTF_Answer__v1-en.srt",
        "import_path": "__Vulns1002_05_TypeConfusion_02_Example_CVE-2020-3853_02_FTF_Answer__v1-en.srt",
        "locked": false,
        "thumbnail_location": null
    },
    "__Vulns1002_05_TypeConfusion_02_Example_CVE-2021-1732_01_Background_CVE-2021-1732__v1-en.srt": {
        "contentType": "application/octet-stream",
        "content_son": {
            "category": "asset",
            "course": "Vulns1002_C-derived",
            "name": "__Vulns1002_05_TypeConfusion_02_Example_CVE-2021-1732_01_Background_CVE-2021-1732__v1-en.srt",
            "org": "OpenSecurityTraining2",
            "revision": null,
            "run": "2022_v1",
            "tag": "c4x"
        },
        "displayname": "__Vulns1002_05_TypeConfusion_02_Example_CVE-2021-1732_01_Background_CVE-2021-1732__v1-en.srt",
        "filename": "asset-v1:OpenSecurityTraining2+Vulns1002_C-derived+2022_v1+type@asset+block@__Vulns1002_05_TypeConfusion_02_Example_CVE-2021-1732_01_Background_CVE-2021-1732__v1-en.srt",
        "import_path": "__Vulns1002_05_TypeConfusion_02_Example_CVE-2021-1732_01_Background_CVE-2021-1732__v1-en.srt",
        "locked": false,
        "thumbnail_location": null
    },
    "__Vulns1002_05_TypeConfusion_02_Example_CVE-2021-1732_02_FTF_Answer__v1-en.srt": {
        "contentType": "application/octet-stream",
        "content_son": {
            "category": "asset",
            "course": "Vulns1002_C-derived",
            "name": "__Vulns1002_05_TypeConfusion_02_Example_CVE-2021-1732_02_FTF_Answer__v1-en.srt",
            "org": "OpenSecurityTraining2",
            "revision": null,
            "run": "2022_v1",
            "tag": "c4x"
        },
        "displayname": "__Vulns1002_05_TypeConfusion_02_Example_CVE-2021-1732_02_FTF_Answer__v1-en.srt",
        "filename": "asset-v1:OpenSecurityTraining2+Vulns1002_C-derived+2022_v1+type@asset+block@__Vulns1002_05_TypeConfusion_02_Example_CVE-2021-1732_02_FTF_Answer__v1-en.srt",
        "import_path": "__Vulns1002_05_TypeConfusion_02_Example_CVE-2021-1732_02_FTF_Answer__v1-en.srt",
        "locked": false,
        "thumbnail_location": null
    },
    "__Vulns1002_05_TypeConfusion_02_Example_CVE-2021-1732_03_Exploit_CVE-2021-1732__v1-en.srt": {
        "contentType": "application/octet-stream",
        "content_son": {
            "category": "asset",
            "course": "Vulns1002_C-derived",
            "name": "__Vulns1002_05_TypeConfusion_02_Example_CVE-2021-1732_03_Exploit_CVE-2021-1732__v1-en.srt",
            "org": "OpenSecurityTraining2",
            "revision": null,
            "run": "2022_v1",
            "tag": "c4x"
        },
        "displayname": "__Vulns1002_05_TypeConfusion_02_Example_CVE-2021-1732_03_Exploit_CVE-2021-1732__v1-en.srt",
        "filename": "asset-v1:OpenSecurityTraining2+Vulns1002_C-derived+2022_v1+type@asset+block@__Vulns1002_05_TypeConfusion_02_Example_CVE-2021-1732_03_Exploit_CVE-2021-1732__v1-en.srt",
        "import_path": "__Vulns1002_05_TypeConfusion_02_Example_CVE-2021-1732_03_Exploit_CVE-2021-1732__v1-en.srt",
        "locked": false,
        "thumbnail_location": null
    },
    "__Vulns1002_05_TypeConfusion_02_Example_CVE-2021-1732_04_Background_FTF_CVE-2022-21882__v1-en.srt": {
        "contentType": "application/octet-stream",
        "content_son": {
            "category": "asset",
            "course": "Vulns1002_C-derived",
            "name": "__Vulns1002_05_TypeConfusion_02_Example_CVE-2021-1732_04_Background_FTF_CVE-2022-21882__v1-en.srt",
            "org": "OpenSecurityTraining2",
            "revision": null,
            "run": "2022_v1",
            "tag": "c4x"
        },
        "displayname": "__Vulns1002_05_TypeConfusion_02_Example_CVE-2021-1732_04_Background_FTF_CVE-2022-21882__v1-en.srt",
        "filename": "asset-v1:OpenSecurityTraining2+Vulns1002_C-derived+2022_v1+type@asset+block@__Vulns1002_05_TypeConfusion_02_Example_CVE-2021-1732_04_Background_FTF_CVE-2022-21882__v1-en.srt",
        "import_path": "__Vulns1002_05_TypeConfusion_02_Example_CVE-2021-1732_04_Background_FTF_CVE-2022-21882__v1-en.srt",
        "locked": false,
        "thumbnail_location": null
    },
    "__Vulns1002_05_TypeConfusion_02_Example_CVE-2021-1732_05_Exploit_CVE-2022-21882__v1-en.srt": {
        "contentType": "application/octet-stream",
        "content_son": {
            "category": "asset",
            "course": "Vulns1002_C-derived",
            "name": "__Vulns1002_05_TypeConfusion_02_Example_CVE-2021-1732_05_Exploit_CVE-2022-21882__v1-en.srt",
            "org": "OpenSecurityTraining2",
            "revision": null,
            "run": "2022_v1",
            "tag": "c4x"
        },
        "displayname": "__Vulns1002_05_TypeConfusion_02_Example_CVE-2021-1732_05_Exploit_CVE-2022-21882__v1-en.srt",
        "filename": "asset-v1:OpenSecurityTraining2+Vulns1002_C-derived+2022_v1+type@asset+block@__Vulns1002_05_TypeConfusion_02_Example_CVE-2021-1732_05_Exploit_CVE-2022-21882__v1-en.srt",
        "import_path": "__Vulns1002_05_TypeConfusion_02_Example_CVE-2021-1732_05_Exploit_CVE-2022-21882__v1-en.srt",
        "locked": false,
        "thumbnail_location": null
    },
    "__Vulns1002_05_TypeConfusion_02_Example_CVE-2021-30857_01_Background__v1-en.srt": {
        "contentType": "application/octet-stream",
        "content_son": {
            "category": "asset",
            "course": "Vulns1002_C-derived",
            "name": "__Vulns1002_05_TypeConfusion_02_Example_CVE-2021-30857_01_Background__v1-en.srt",
            "org": "OpenSecurityTraining2",
            "revision": null,
            "run": "2022_v1",
            "tag": "c4x"
        },
        "displayname": "__Vulns1002_05_TypeConfusion_02_Example_CVE-2021-30857_01_Background__v1-en.srt",
        "filename": "asset-v1:OpenSecurityTraining2+Vulns1002_C-derived+2022_v1+type@asset+block@__Vulns1002_05_TypeConfusion_02_Example_CVE-2021-30857_01_Background__v1-en.srt",
        "import_path": "__Vulns1002_05_TypeConfusion_02_Example_CVE-2021-30857_01_Background__v1-en.srt",
        "locked": false,
        "thumbnail_location": null
    },
    "__Vulns1002_05_TypeConfusion_02_Example_CVE-2021-30857_02_FTF_Answer__v1-en.srt": {
        "contentType": "application/octet-stream",
        "content_son": {
            "category": "asset",
            "course": "Vulns1002_C-derived",
            "name": "__Vulns1002_05_TypeConfusion_02_Example_CVE-2021-30857_02_FTF_Answer__v1-en.srt",
            "org": "OpenSecurityTraining2",
            "revision": null,
            "run": "2022_v1",
            "tag": "c4x"
        },
        "displayname": "__Vulns1002_05_TypeConfusion_02_Example_CVE-2021-30857_02_FTF_Answer__v1-en.srt",
        "filename": "asset-v1:OpenSecurityTraining2+Vulns1002_C-derived+2022_v1+type@asset+block@__Vulns1002_05_TypeConfusion_02_Example_CVE-2021-30857_02_FTF_Answer__v1-en.srt",
        "import_path": "__Vulns1002_05_TypeConfusion_02_Example_CVE-2021-30857_02_FTF_Answer__v1-en.srt",
        "locked": false,
        "thumbnail_location": null
    },
    "__Vulns1002_05_TypeConfusion_02_Example_CVE-2021-41073_01_Background__v1-en.srt": {
        "contentType": "application/octet-stream",
        "content_son": {
            "category": "asset",
            "course": "Vulns1002_C-derived",
            "name": "__Vulns1002_05_TypeConfusion_02_Example_CVE-2021-41073_01_Background__v1-en.srt",
            "org": "OpenSecurityTraining2",
            "revision": null,
            "run": "2022_v1",
            "tag": "c4x"
        },
        "displayname": "__Vulns1002_05_TypeConfusion_02_Example_CVE-2021-41073_01_Background__v1-en.srt",
        "filename": "asset-v1:OpenSecurityTraining2+Vulns1002_C-derived+2022_v1+type@asset+block@__Vulns1002_05_TypeConfusion_02_Example_CVE-2021-41073_01_Background__v1-en.srt",
        "import_path": "__Vulns1002_05_TypeConfusion_02_Example_CVE-2021-41073_01_Background__v1-en.srt",
        "locked": false,
        "thumbnail_location": null
    },
    "__Vulns1002_05_TypeConfusion_02_Example_CVE-2021-41073_02_FTF_Answer__v1-en.srt": {
        "contentType": "application/octet-stream",
        "content_son": {
            "category": "asset",
            "course": "Vulns1002_C-derived",
            "name": "__Vulns1002_05_TypeConfusion_02_Example_CVE-2021-41073_02_FTF_Answer__v1-en.srt",
            "org": "OpenSecurityTraining2",
            "revision": null,
            "run": "2022_v1",
            "tag": "c4x"
        },
        "displayname": "__Vulns1002_05_TypeConfusion_02_Example_CVE-2021-41073_02_FTF_Answer__v1-en.srt",
        "filename": "asset-v1:OpenSecurityTraining2+Vulns1002_C-derived+2022_v1+type@asset+block@__Vulns1002_05_TypeConfusion_02_Example_CVE-2021-41073_02_FTF_Answer__v1-en.srt",
        "import_path": "__Vulns1002_05_TypeConfusion_02_Example_CVE-2021-41073_02_FTF_Answer__v1-en.srt",
        "locked": false,
        "thumbnail_location": null
    },
    "__Vulns1002_06_InfoLeak_01_Overview__v1-en.srt": {
        "contentType": "application/octet-stream",
        "content_son": {
            "category": "asset",
            "course": "Vulns1002_C-derived",
            "name": "__Vulns1002_06_InfoLeak_01_Overview__v1-en.srt",
            "org": "OpenSecurityTraining2",
            "revision": null,
            "run": "2022_v1",
            "tag": "c4x"
        },
        "displayname": "__Vulns1002_06_InfoLeak_01_Overview__v1-en.srt",
        "filename": "asset-v1:OpenSecurityTraining2+Vulns1002_C-derived+2022_v1+type@asset+block@__Vulns1002_06_InfoLeak_01_Overview__v1-en.srt",
        "import_path": "__Vulns1002_06_InfoLeak_01_Overview__v1-en.srt",
        "locked": false,
        "thumbnail_location": null
    },
    "__Vulns1002_06_InfoLeak_02_Example_CVE-2020_9833_01_Background__v1-en.srt": {
        "contentType": "application/octet-stream",
        "content_son": {
            "category": "asset",
            "course": "Vulns1002_C-derived",
            "name": "__Vulns1002_06_InfoLeak_02_Example_CVE-2020_9833_01_Background__v1-en.srt",
            "org": "OpenSecurityTraining2",
            "revision": null,
            "run": "2022_v1",
            "tag": "c4x"
        },
        "displayname": "__Vulns1002_06_InfoLeak_02_Example_CVE-2020_9833_01_Background__v1-en.srt",
        "filename": "asset-v1:OpenSecurityTraining2+Vulns1002_C-derived+2022_v1+type@asset+block@__Vulns1002_06_InfoLeak_02_Example_CVE-2020_9833_01_Background__v1-en.srt",
        "import_path": "__Vulns1002_06_InfoLeak_02_Example_CVE-2020_9833_01_Background__v1-en.srt",
        "locked": false,
        "thumbnail_location": null
    },
    "__Vulns1002_06_InfoLeak_02_Example_CVE-2020_9833_02_FTF_Answer__v1-en.srt": {
        "contentType": "application/octet-stream",
        "content_son": {
            "category": "asset",
            "course": "Vulns1002_C-derived",
            "name": "__Vulns1002_06_InfoLeak_02_Example_CVE-2020_9833_02_FTF_Answer__v1-en.srt",
            "org": "OpenSecurityTraining2",
            "revision": null,
            "run": "2022_v1",
            "tag": "c4x"
        },
        "displayname": "__Vulns1002_06_InfoLeak_02_Example_CVE-2020_9833_02_FTF_Answer__v1-en.srt",
        "filename": "asset-v1:OpenSecurityTraining2+Vulns1002_C-derived+2022_v1+type@asset+block@__Vulns1002_06_InfoLeak_02_Example_CVE-2020_9833_02_FTF_Answer__v1-en.srt",
        "import_path": "__Vulns1002_06_InfoLeak_02_Example_CVE-2020_9833_02_FTF_Answer__v1-en.srt",
        "locked": false,
        "thumbnail_location": null
    },
    "__Vulns1002_06_InfoLeak_02_Example_CVE-2021-3947_01_Background__v1-en.srt": {
        "contentType": "application/octet-stream",
        "content_son": {
            "category": "asset",
            "course": "Vulns1002_C-derived",
            "name": "__Vulns1002_06_InfoLeak_02_Example_CVE-2021-3947_01_Background__v1-en.srt",
            "org": "OpenSecurityTraining2",
            "revision": null,
            "run": "2022_v1",
            "tag": "c4x"
        },
        "displayname": "__Vulns1002_06_InfoLeak_02_Example_CVE-2021-3947_01_Background__v1-en.srt",
        "filename": "asset-v1:OpenSecurityTraining2+Vulns1002_C-derived+2022_v1+type@asset+block@__Vulns1002_06_InfoLeak_02_Example_CVE-2021-3947_01_Background__v1-en.srt",
        "import_path": "__Vulns1002_06_InfoLeak_02_Example_CVE-2021-3947_01_Background__v1-en.srt",
        "locked": false,
        "thumbnail_location": null
    },
    "__Vulns1002_06_InfoLeak_02_Example_CVE-2021-3947_02_FTF_Answer__v1-en.srt": {
        "contentType": "application/octet-stream",
        "content_son": {
            "category": "asset",
            "course": "Vulns1002_C-derived",
            "name": "__Vulns1002_06_InfoLeak_02_Example_CVE-2021-3947_02_FTF_Answer__v1-en.srt",
            "org": "OpenSecurityTraining2",
            "revision": null,
            "run": "2022_v1",
            "tag": "c4x"
        },
        "displayname": "__Vulns1002_06_InfoLeak_02_Example_CVE-2021-3947_02_FTF_Answer__v1-en.srt",
        "filename": "asset-v1:OpenSecurityTraining2+Vulns1002_C-derived+2022_v1+type@asset+block@__Vulns1002_06_InfoLeak_02_Example_CVE-2021-3947_02_FTF_Answer__v1-en.srt",
        "import_path": "__Vulns1002_06_InfoLeak_02_Example_CVE-2021-3947_02_FTF_Answer__v1-en.srt",
        "locked": false,
        "thumbnail_location": null
    },
    "__Vulns1002_06_InfoLeak_02_Example_CVE-2022_29181_01_Background__v1-en.srt": {
        "contentType": "application/octet-stream",
        "content_son": {
            "category": "asset",
            "course": "Vulns1002_C-derived",
            "name": "__Vulns1002_06_InfoLeak_02_Example_CVE-2022_29181_01_Background__v1-en.srt",
            "org": "OpenSecurityTraining2",
            "revision": null,
            "run": "2022_v1",
            "tag": "c4x"
        },
        "displayname": "__Vulns1002_06_InfoLeak_02_Example_CVE-2022_29181_01_Background__v1-en.srt",
        "filename": "asset-v1:OpenSecurityTraining2+Vulns1002_C-derived+2022_v1+type@asset+block@__Vulns1002_06_InfoLeak_02_Example_CVE-2022_29181_01_Background__v1-en.srt",
        "import_path": "__Vulns1002_06_InfoLeak_02_Example_CVE-2022_29181_01_Background__v1-en.srt",
        "locked": false,
        "thumbnail_location": null
    },
    "__Vulns1002_06_InfoLeak_02_Example_CVE-2022_29181_02_FTF_Answer__v1-en.srt": {
        "contentType": "application/octet-stream",
        "content_son": {
            "category": "asset",
            "course": "Vulns1002_C-derived",
            "name": "__Vulns1002_06_InfoLeak_02_Example_CVE-2022_29181_02_FTF_Answer__v1-en.srt",
            "org": "OpenSecurityTraining2",
            "revision": null,
            "run": "2022_v1",
            "tag": "c4x"
        },
        "displayname": "__Vulns1002_06_InfoLeak_02_Example_CVE-2022_29181_02_FTF_Answer__v1-en.srt",
        "filename": "asset-v1:OpenSecurityTraining2+Vulns1002_C-derived+2022_v1+type@asset+block@__Vulns1002_06_InfoLeak_02_Example_CVE-2022_29181_02_FTF_Answer__v1-en.srt",
        "import_path": "__Vulns1002_06_InfoLeak_02_Example_CVE-2022_29181_02_FTF_Answer__v1-en.srt",
        "locked": false,
        "thumbnail_location": null
    },
    "__Vulns100X_Eclipse_01_Install_and_Workspace__v1-en.srt": {
        "contentType": "application/octet-stream",
        "content_son": {
            "category": "asset",
            "course": "Vulns1002_C-derived",
            "name": "__Vulns100X_Eclipse_01_Install_and_Workspace__v1-en.srt",
            "org": "OpenSecurityTraining2",
            "revision": null,
            "run": "2022_v1",
            "tag": "c4x"
        },
        "displayname": "__Vulns100X_Eclipse_01_Install_and_Workspace__v1-en.srt",
        "filename": "asset-v1:OpenSecurityTraining2+Vulns1002_C-derived+2022_v1+type@asset+block@__Vulns100X_Eclipse_01_Install_and_Workspace__v1-en.srt",
        "import_path": "__Vulns100X_Eclipse_01_Install_and_Workspace__v1-en.srt",
        "locked": false,
        "thumbnail_location": null
    },
    "__Vulns100X_Eclipse_02_Code_Navigation_Must_Have__v1-en.srt": {
        "contentType": "application/octet-stream",
        "content_son": {
            "category": "asset",
            "course": "Vulns1002_C-derived",
            "name": "__Vulns100X_Eclipse_02_Code_Navigation_Must_Have__v1-en.srt",
            "org": "OpenSecurityTraining2",
            "revision": null,
            "run": "2022_v1",
            "tag": "c4x"
        },
        "displayname": "__Vulns100X_Eclipse_02_Code_Navigation_Must_Have__v1-en.srt",
        "filename": "asset-v1:OpenSecurityTraining2+Vulns1002_C-derived+2022_v1+type@asset+block@__Vulns100X_Eclipse_02_Code_Navigation_Must_Have__v1-en.srt",
        "import_path": "__Vulns100X_Eclipse_02_Code_Navigation_Must_Have__v1-en.srt",
        "locked": false,
        "thumbnail_location": null
    },
    "__Vulns100X_Eclipse_03_Code_Navigation_Nice_To_Have__v1-en.srt": {
        "contentType": "application/octet-stream",
        "content_son": {
            "category": "asset",
            "course": "Vulns1002_C-derived",
            "name": "__Vulns100X_Eclipse_03_Code_Navigation_Nice_To_Have__v1-en.srt",
            "org": "OpenSecurityTraining2",
            "revision": null,
            "run": "2022_v1",
            "tag": "c4x"
        },
        "displayname": "__Vulns100X_Eclipse_03_Code_Navigation_Nice_To_Have__v1-en.srt",
        "filename": "asset-v1:OpenSecurityTraining2+Vulns1002_C-derived+2022_v1+type@asset+block@__Vulns100X_Eclipse_03_Code_Navigation_Nice_To_Have__v1-en.srt",
        "import_path": "__Vulns100X_Eclipse_03_Code_Navigation_Nice_To_Have__v1-en.srt",
        "locked": false,
        "thumbnail_location": null
    },
    "bfb827cf-9f3e-4cd0-8319-be0ab98f797d-en.srt": {
        "contentType": "application/octet-stream",
        "content_son": {
            "category": "asset",
            "course": "Vulns1002_C-derived",
            "name": "bfb827cf-9f3e-4cd0-8319-be0ab98f797d-en.srt",
            "org": "OpenSecurityTraining2",
            "revision": null,
            "run": "2022_v1",
            "tag": "c4x"
        },
        "displayname": "bfb827cf-9f3e-4cd0-8319-be0ab98f797d-en.srt",
        "filename": "asset-v1:OpenSecurityTraining2+Vulns1002_C-derived+2022_v1+type@asset+block@bfb827cf-9f3e-4cd0-8319-be0ab98f797d-en.srt",
        "import_path": "bfb827cf-9f3e-4cd0-8319-be0ab98f797d-en.srt",
        "locked": false,
        "thumbnail_location": null
    },
    "f19e21a9-a466-45f1-8e4d-2c2dd3c6fa32-en.srt": {
        "contentType": "application/octet-stream",
        "content_son": {
            "category": "asset",
            "course": "Vulns1002_C-derived",
            "name": "f19e21a9-a466-45f1-8e4d-2c2dd3c6fa32-en.srt",
            "org": "OpenSecurityTraining2",
            "revision": null,
            "run": "2022_v1",
            "tag": "c4x"
        },
        "displayname": "f19e21a9-a466-45f1-8e4d-2c2dd3c6fa32-en.srt",
        "filename": "asset-v1:OpenSecurityTraining2+Vulns1002_C-derived+2022_v1+type@asset+block@f19e21a9-a466-45f1-8e4d-2c2dd3c6fa32-en.srt",
        "import_path": "f19e21a9-a466-45f1-8e4d-2c2dd3c6fa32-en.srt",
        "locked": false,
        "thumbnail_location": null
    },
    "f5adaf37-cff8-4dd8-83a2-9f9818b2d803-en.srt": {
        "contentType": "application/octet-stream",
        "content_son": {
            "category": "asset",
            "course": "Vulns1002_C-derived",
            "name": "f5adaf37-cff8-4dd8-83a2-9f9818b2d803-en.srt",
            "org": "OpenSecurityTraining2",
            "revision": null,
            "run": "2022_v1",
            "tag": "c4x"
        },
        "displayname": "f5adaf37-cff8-4dd8-83a2-9f9818b2d803-en.srt",
        "filename": "asset-v1:OpenSecurityTraining2+Vulns1002_C-derived+2022_v1+type@asset+block@f5adaf37-cff8-4dd8-83a2-9f9818b2d803-en.srt",
        "import_path": "f5adaf37-cff8-4dd8-83a2-9f9818b2d803-en.srt",
        "locked": false,
        "thumbnail_location": null
    },
    "subs_-awd5uyiT_Y.srt.sjson": {
        "contentType": "application/json",
        "content_son": {
            "category": "asset",
            "course": "Vulns1002_C-derived",
            "name": "subs_-awd5uyiT_Y.srt.sjson",
            "org": "OpenSecurityTraining2",
            "revision": null,
            "run": "2022_v1",
            "tag": "c4x"
        },
        "displayname": "subs_-awd5uyiT_Y.srt.sjson",
        "filename": "asset-v1:OpenSecurityTraining2+Vulns1002_C-derived+2022_v1+type@asset+block@subs_-awd5uyiT_Y.srt.sjson",
        "import_path": "subs_-awd5uyiT_Y.srt.sjson",
        "locked": false,
        "thumbnail_location": null
    },
    "subs_AoJ85yl4WXE.srt.sjson": {
        "contentType": "application/json",
        "content_son": {
            "category": "asset",
            "course": "Vulns1002_C-derived",
            "name": "subs_AoJ85yl4WXE.srt.sjson",
            "org": "OpenSecurityTraining2",
            "revision": null,
            "run": "2022_v1",
            "tag": "c4x"
        },
        "displayname": "subs_AoJ85yl4WXE.srt.sjson",
        "filename": "asset-v1:OpenSecurityTraining2+Vulns1002_C-derived+2022_v1+type@asset+block@subs_AoJ85yl4WXE.srt.sjson",
        "import_path": "subs_AoJ85yl4WXE.srt.sjson",
        "locked": false,
        "thumbnail_location": null
    },
    "subs_FWF10yZneko.srt.sjson": {
        "contentType": "application/json",
        "content_son": {
            "category": "asset",
            "course": "Vulns1002_C-derived",
            "name": "subs_FWF10yZneko.srt.sjson",
            "org": "OpenSecurityTraining2",
            "revision": null,
            "run": "2022_v1",
            "tag": "c4x"
        },
        "displayname": "subs_FWF10yZneko.srt.sjson",
        "filename": "asset-v1:OpenSecurityTraining2+Vulns1002_C-derived+2022_v1+type@asset+block@subs_FWF10yZneko.srt.sjson",
        "import_path": "subs_FWF10yZneko.srt.sjson",
        "locked": false,
        "thumbnail_location": null
    },
    "subs_Lo_1VyPmM68.srt.sjson": {
        "contentType": "application/json",
        "content_son": {
            "category": "asset",
            "course": "Vulns1002_C-derived",
            "name": "subs_Lo_1VyPmM68.srt.sjson",
            "org": "OpenSecurityTraining2",
            "revision": null,
            "run": "2022_v1",
            "tag": "c4x"
        },
        "displayname": "subs_Lo_1VyPmM68.srt.sjson",
        "filename": "asset-v1:OpenSecurityTraining2+Vulns1002_C-derived+2022_v1+type@asset+block@subs_Lo_1VyPmM68.srt.sjson",
        "import_path": "subs_Lo_1VyPmM68.srt.sjson",
        "locked": false,
        "thumbnail_location": null
    },
    "subs_RB26SfUwej8.srt.sjson": {
        "contentType": "application/json",
        "content_son": {
            "category": "asset",
            "course": "Vulns1002_C-derived",
            "name": "subs_RB26SfUwej8.srt.sjson",
            "org": "OpenSecurityTraining2",
            "revision": null,
            "run": "2022_v1",
            "tag": "c4x"
        },
        "displayname": "subs_RB26SfUwej8.srt.sjson",
        "filename": "asset-v1:OpenSecurityTraining2+Vulns1002_C-derived+2022_v1+type@asset+block@subs_RB26SfUwej8.srt.sjson",
        "import_path": "subs_RB26SfUwej8.srt.sjson",
        "locked": false,
        "thumbnail_location": null
    },
    "subs_Uf-5IbHuiKM.srt.sjson": {
        "contentType": "application/json",
        "content_son": {
            "category": "asset",
            "course": "Vulns1002_C-derived",
            "name": "subs_Uf-5IbHuiKM.srt.sjson",
            "org": "OpenSecurityTraining2",
            "revision": null,
            "run": "2022_v1",
            "tag": "c4x"
        },
        "displayname": "subs_Uf-5IbHuiKM.srt.sjson",
        "filename": "asset-v1:OpenSecurityTraining2+Vulns1002_C-derived+2022_v1+type@asset+block@subs_Uf-5IbHuiKM.srt.sjson",
        "import_path": "subs_Uf-5IbHuiKM.srt.sjson",
        "locked": false,
        "thumbnail_location": null
    },
    "subs_eR97RTyA6MA.srt.sjson": {
        "contentType": "application/json",
        "content_son": {
            "category": "asset",
            "course": "Vulns1002_C-derived",
            "name": "subs_eR97RTyA6MA.srt.sjson",
            "org": "OpenSecurityTraining2",
            "revision": null,
            "run": "2022_v1",
            "tag": "c4x"
        },
        "displayname": "subs_eR97RTyA6MA.srt.sjson",
        "filename": "asset-v1:OpenSecurityTraining2+Vulns1002_C-derived+2022_v1+type@asset+block@subs_eR97RTyA6MA.srt.sjson",
        "import_path": "subs_eR97RTyA6MA.srt.sjson",
        "locked": false,
        "thumbnail_location": null
    },
    "subs_pjfFRH3l_5g.srt.sjson": {
        "contentType": "application/json",
        "content_son": {
            "category": "asset",
            "course": "Vulns1002_C-derived",
            "name": "subs_pjfFRH3l_5g.srt.sjson",
            "org": "OpenSecurityTraining2",
            "revision": null,
            "run": "2022_v1",
            "tag": "c4x"
        },
        "displayname": "subs_pjfFRH3l_5g.srt.sjson",
        "filename": "asset-v1:OpenSecurityTraining2+Vulns1002_C-derived+2022_v1+type@asset+block@subs_pjfFRH3l_5g.srt.sjson",
        "import_path": "subs_pjfFRH3l_5g.srt.sjson",
        "locked": false,
        "thumbnail_location": null
    },
    "subs_wAFRCzukFTA.srt.sjson": {
        "contentType": "application/json",
        "content_son": {
            "category": "asset",
            "course": "Vulns1002_C-derived",
            "name": "subs_wAFRCzukFTA.srt.sjson",
            "org": "OpenSecurityTraining2",
            "revision": null,
            "run": "2022_v1",
            "tag": "c4x"
        },
        "displayname": "subs_wAFRCzukFTA.srt.sjson",
        "filename": "asset-v1:OpenSecurityTraining2+Vulns1002_C-derived+2022_v1+type@asset+block@subs_wAFRCzukFTA.srt.sjson",
        "import_path": "subs_wAFRCzukFTA.srt.sjson",
        "locked": false,
        "thumbnail_location": null
    }
}